{
    "shopping": [
        {
            "rid": "78f62d60-7d3c-4b8b-bf30-47a6c71798f2",
            "category": "shopping",
            "request": "dolor, tempor, pariatur, duis"
        },
        {
            "rid": "9fd26a41-45fc-42ba-8976-9cf60c913c41",
            "category": "shopping",
            "request": "do, id, consequat, non"
        },
        {
            "rid": "a90a8253-f6f0-4166-a07c-047840d8eb0a",
            "category": "shopping",
            "request": "voluptate, sint, aliquip, sunt"
        },
        {
            "rid": "0cfb1961-d5bf-49c7-a495-4ee91ea2117b",
            "category": "shopping",
            "request": "ipsum, consequat, irure, pariatur"
        },
        {
            "rid": "cca8642d-335a-4658-8d9e-4ab85242df25",
            "category": "shopping",
            "request": "nisi, nulla, et, deserunt"
        }
    ],
    "outdoors": [
        {
            "rid": "f34345ce-6c14-4969-803d-2696a55124cf",
            "category": "outdoors",
            "request": "adipisicing voluptate duis"
        },
        {
            "rid": "79c74d43-f595-40bf-99b8-a143a5b5780a",
            "category": "outdoors",
            "request": "sunt aliquip fugiat"
        },
        {
            "rid": "2eb2f41c-dc8c-47c0-bc2f-7e3bb7013289",
            "category": "outdoors",
            "request": "mollit non dolor"
        },
        {
            "rid": "0c337f22-aa0f-4750-bd00-d2f042db1ae4",
            "category": "outdoors",
            "request": "voluptate reprehenderit nostrud"
        },
        {
            "rid": "b75bcdc8-8ff2-44be-b05b-f34b764c676e",
            "category": "outdoors",
            "request": "aute excepteur cupidatat"
        }
    ],
    "indoors": [
        {
            "rid": "e8582a38-62dc-4975-9ad3-c44bf93f63b4",
            "category": "indoors",
            "request": "adipisicing duis aliqua"
        },
        {
            "rid": "c5a6fce2-633e-4551-9d7b-67cd9e339816",
            "category": "indoors",
            "request": "officia occaecat tempor excepteur"
        },
        {
            "rid": "f65e361e-508a-4aa7-8c59-3fc0b23955e1",
            "category": "indoors",
            "request": "cupidatat eu aliquip"
        },
        {
            "rid": "0278b3a7-a703-41e4-8322-8f3c846ddd6f",
            "category": "indoors",
            "request": "id deserunt ea"
        },
        {
            "rid": "de2fdd4f-2324-4dc1-b82d-cd9947ecd226",
            "category": "indoors",
            "request": "eu fugiat ad"
        }
    ]
}